Hands-on_Ex01a–Geospatial Data Wrangling with R – <img src='/images/logo.png' style='height:40px;'>
…
8.1 Importing the aspatial data

Since listings data set is in csv file format, we will use read_csv() of readr package to import listing.csv as shown the code chunk below. The output R object is called listings and it is a tibble data frame.

listings <- read_csv("data/aspatial/listings.csv")

After importing the data file into R, it is important for us to examine if the data file has been imported correctly.

The code chunk below shows list() of Base R instead of glimpse() is used to do the job.

list(listings) 

[[1]]
# A tibble: 3,659 × 18
       id name      host_id host_name neighbourhood_group neighbourhood latitude
    <dbl> <chr>       <dbl> <chr>     <chr>               <chr>            <dbl>
 1  71609 Ensuite …  367042 Belinda   East Region         Tampines          1.35
 2  71896 B&B  Roo…  367042 Belinda   East Region         Tampines          1.35
 3  71903 Room 2-n…  367042 Belinda   East Region         Tampines          1.35
 4 275343 10min wa… 1439258 Kay       Central Region      Bukit Merah       1.29
 5 275344 15 mins … 1439258 Kay       Central Region      Bukit Merah       1.29
 6 294281 5 mins w… 1521514 Elizabeth Central Region      Newton            1.31
 7 324945 Comforta… 1439258 Kay       Central Region      Bukit Merah       1.29
 8 330095 Relaxing… 1439258 Kay       Central Region      Bukit Merah       1.29
 9 344803 Budget s…  367042 Belinda   East Region         Tampines          1.35
10 369141 5mins fr… 1521514 Elizabeth Central Region      Newton            1.31
# ℹ 3,649 more rows
# ℹ 11 more variables: longitude <dbl>, room_type <chr>, price <dbl>,
#   minimum_nights <dbl>, number_of_reviews <dbl>, last_review <date>,
#   reviews_per_month <dbl>, calculated_host_listings_count <dbl>,
#   availability_365 <dbl>, number_of_reviews_ltm <dbl>, license <chr>
…
